-- Merging decision tree log ---
manifest
ADDED from C:\Users\USER\android-fundamentals-apps-v2-master\Register\app\src\main\AndroidManifest.xml:2:1-21:12
INJECTED from C:\Users\USER\android-fundamentals-apps-v2-master\Register\app\src\main\AndroidManifest.xml:2:1-21:12
INJECTED from C:\Users\USER\android-fundamentals-apps-v2-master\Register\app\src\main\AndroidManifest.xml:2:1-21:12
INJECTED from C:\Users\USER\android-fundamentals-apps-v2-master\Register\app\src\main\AndroidManifest.xml:2:1-21:12
MERGED from [androidx.appcompat:appcompat:1.0.2] C:\Users\USER\.gradle\caches\transforms-2\files-2.1\697f71c0c12135256cbfe98df498a7e4\appcompat-1.0.2\AndroidManifest.xml:17:1-22:12
MERGED from [androidx.constraintlayout:constraintlayout:1.1.3] C:\Users\USER\.gradle\caches\transforms-2\files-2.1\3ec6fa8458ddbe732478393a9f9e6c77\constraintlayout-1.1.3\AndroidManifest.xml:2:1-11:12
MERGED from [androidx.fragment:fragment:1.0.0] C:\Users\USER\.gradle\caches\transforms-2\files-2.1\4f680f5cab482b7966fa9c805ac0cb70\fragment-1.0.0\AndroidManifest.xml:17:1-22:12
MERGED from [androidx.vectordrawable:vectordrawable-animated:1.0.0] C:\Users\USER\.gradle\caches\transforms-2\files-2.1\61965e5c06bda9445c13760f9d9ef779\vectordrawable-animated-1.0.0\AndroidManifest.xml:17:1-22:12
MERGED from [androidx.legacy:legacy-support-core-ui:1.0.0] C:\Users\USER\.gradle\caches\transforms-2\files-2.1\ec593f8d91037f6ef1bbcd6a177afa1c\legacy-support-core-ui-1.0.0\AndroidManifest.xml:17:1-22:12
MERGED from [androidx.legacy:legacy-support-core-utils:1.0.0] C:\Users\USER\.gradle\caches\transforms-2\files-2.1\4f8b5527496d67480951cc322460db7f\legacy-support-core-utils-1.0.0\AndroidManifest.xml:17:1-22:12
MERGED from [androidx.vectordrawable:vectordrawable:1.0.1] C:\Users\USER\.gradle\caches\transforms-2\files-2.1\62ec569ca307aebf19eb528ff2a14917\vectordrawable-1.0.1\AndroidManifest.xml:17:1-22:12
MERGED from [androidx.loader:loader:1.0.0] C:\Users\USER\.gradle\caches\transforms-2\files-2.1\5276819c062a92c029464122749254f1\loader-1.0.0\AndroidManifest.xml:17:1-22:12
MERGED from [androidx.viewpager:viewpager:1.0.0] C:\Users\USER\.gradle\caches\transforms-2\files-2.1\4932f7e67b26f042b51fa62f1aa4816d\viewpager-1.0.0\AndroidManifest.xml:17:1-22:12
MERGED from [androidx.coordinatorlayout:coordinatorlayout:1.0.0] C:\Users\USER\.gradle\caches\transforms-2\files-2.1\8849109129fcb2f39779166fb64480b1\coordinatorlayout-1.0.0\AndroidManifest.xml:17:1-22:12
MERGED from [androidx.drawerlayout:drawerlayout:1.0.0] C:\Users\USER\.gradle\caches\transforms-2\files-2.1\00bc847ce5b9e3ce7b40d465bffbf9e9\drawerlayout-1.0.0\AndroidManifest.xml:17:1-22:12
MERGED from [androidx.slidingpanelayout:slidingpanelayout:1.0.0] C:\Users\USER\.gradle\caches\transforms-2\files-2.1\5ad830c9e1047f79e3f0f7e9e42ab8ab\slidingpanelayout-1.0.0\AndroidManifest.xml:17:1-22:12
MERGED from [androidx.customview:customview:1.0.0] C:\Users\USER\.gradle\caches\transforms-2\files-2.1\a3c457ded457b98b207b4f227d629399\customview-1.0.0\AndroidManifest.xml:17:1-22:12
MERGED from [androidx.swiperefreshlayout:swiperefreshlayout:1.0.0] C:\Users\USER\.gradle\caches\transforms-2\files-2.1\3d4a3c67e39fa8d6d0c0f126c28b81d8\swiperefreshlayout-1.0.0\AndroidManifest.xml:17:1-22:12
MERGED from [androidx.asynclayoutinflater:asynclayoutinflater:1.0.0] C:\Users\USER\.gradle\caches\transforms-2\files-2.1\82b148795609bbbaf8e825fc2ff2a6bf\asynclayoutinflater-1.0.0\AndroidManifest.xml:17:1-22:12
MERGED from [androidx.core:core:1.0.1] C:\Users\USER\.gradle\caches\transforms-2\files-2.1\8f8ab13dc8f4e84e14a8bb3d9ac92bc4\core-1.0.1\AndroidManifest.xml:17:1-24:12
MERGED from [androidx.versionedparcelable:versionedparcelable:1.0.0] C:\Users\USER\.gradle\caches\transforms-2\files-2.1\c70a8bef3ed62675d42960780f476d6e\versionedparcelable-1.0.0\AndroidManifest.xml:17:1-25:12
MERGED from [androidx.cursoradapter:cursoradapter:1.0.0] C:\Users\USER\.gradle\caches\transforms-2\files-2.1\fb2fbe77879a57ea0c5dfd6fe59ba874\cursoradapter-1.0.0\AndroidManifest.xml:17:1-22:12
MERGED from [androidx.lifecycle:lifecycle-runtime:2.0.0] C:\Users\USER\.gradle\caches\transforms-2\files-2.1\4c7e5b6d46acfb24c04b3a473c53b419\lifecycle-runtime-2.0.0\AndroidManifest.xml:17:1-22:12
MERGED from [androidx.documentfile:documentfile:1.0.0] C:\Users\USER\.gradle\caches\transforms-2\files-2.1\f582580d3eb247a74d915a27810a4674\documentfile-1.0.0\AndroidManifest.xml:17:1-22:12
MERGED from [androidx.localbroadcastmanager:localbroadcastmanager:1.0.0] C:\Users\USER\.gradle\caches\transforms-2\files-2.1\c75155371656c04dff3a027cdeb13e8a\localbroadcastmanager-1.0.0\AndroidManifest.xml:17:1-22:12
MERGED from [androidx.print:print:1.0.0] C:\Users\USER\.gradle\caches\transforms-2\files-2.1\53b4a4cf87c0ff501a8c414cec884555\print-1.0.0\AndroidManifest.xml:17:1-22:12
MERGED from [androidx.lifecycle:lifecycle-viewmodel:2.0.0] C:\Users\USER\.gradle\caches\transforms-2\files-2.1\94d1bdd9d3f5e77b2c2deb76d0ecef77\lifecycle-viewmodel-2.0.0\AndroidManifest.xml:17:1-22:12
MERGED from [androidx.lifecycle:lifecycle-livedata:2.0.0] C:\Users\USER\.gradle\caches\transforms-2\files-2.1\63647da4654da12a6f2785cfbbad8123\lifecycle-livedata-2.0.0\AndroidManifest.xml:17:1-22:12
MERGED from [androidx.lifecycle:lifecycle-livedata-core:2.0.0] C:\Users\USER\.gradle\caches\transforms-2\files-2.1\733fc1d306cee2c05d3e1fb0b7527020\lifecycle-livedata-core-2.0.0\AndroidManifest.xml:17:1-22:12
MERGED from [androidx.arch.core:core-runtime:2.0.0] C:\Users\USER\.gradle\caches\transforms-2\files-2.1\fdd65d8b6066fd289a68b42931dc03a2\core-runtime-2.0.0\AndroidManifest.xml:17:1-22:12
MERGED from [androidx.interpolator:interpolator:1.0.0] C:\Users\USER\.gradle\caches\transforms-2\files-2.1\3a992d8307f21a8f15eb649383ba6a6a\interpolator-1.0.0\AndroidManifest.xml:17:1-22:12
INJECTED from C:\Users\USER\android-fundamentals-apps-v2-master\Register\app\src\main\AndroidManifest.xml:2:1-21:12
INJECTED from C:\Users\USER\android-fundamentals-apps-v2-master\Register\app\src\main\AndroidManifest.xml:2:1-21:12
INJECTED from C:\Users\USER\android-fundamentals-apps-v2-master\Register\app\src\main\AndroidManifest.xml:2:1-21:12
	package
		ADDED from C:\Users\USER\android-fundamentals-apps-v2-master\Register\app\src\main\AndroidManifest.xml:3:5-35
		INJECTED from C:\Users\USER\android-fundamentals-apps-v2-master\Register\app\src\main\AndroidManifest.xml
		INJECTED from C:\Users\USER\android-fundamentals-apps-v2-master\Register\app\src\main\AndroidManifest.xml
	android:versionName
		INJECTED from C:\Users\USER\android-fundamentals-apps-v2-master\Register\app\src\main\AndroidManifest.xml
		ADDED from C:\Users\USER\android-fundamentals-apps-v2-master\Register\app\src\main\AndroidManifest.xml:2:1-21:12
		INJECTED from C:\Users\USER\android-fundamentals-apps-v2-master\Register\app\src\main\AndroidManifest.xml
	android:versionCode
		INJECTED from C:\Users\USER\android-fundamentals-apps-v2-master\Register\app\src\main\AndroidManifest.xml
		ADDED from C:\Users\USER\android-fundamentals-apps-v2-master\Register\app\src\main\AndroidManifest.xml:2:1-21:12
		INJECTED from C:\Users\USER\android-fundamentals-apps-v2-master\Register\app\src\main\AndroidManifest.xml
	xmlns:android
		ADDED from C:\Users\USER\android-fundamentals-apps-v2-master\Register\app\src\main\AndroidManifest.xml:2:11-69
application
ADDED from C:\Users\USER\android-fundamentals-apps-v2-master\Register\app\src\main\AndroidManifest.xml:5:5-19:19
MERGED from [androidx.constraintlayout:constraintlayout:1.1.3] C:\Users\USER\.gradle\caches\transforms-2\files-2.1\3ec6fa8458ddbe732478393a9f9e6c77\constraintlayout-1.1.3\AndroidManifest.xml:9:5-20
MERGED from [androidx.constraintlayout:constraintlayout:1.1.3] C:\Users\USER\.gradle\caches\transforms-2\files-2.1\3ec6fa8458ddbe732478393a9f9e6c77\constraintlayout-1.1.3\AndroidManifest.xml:9:5-20
MERGED from [androidx.core:core:1.0.1] C:\Users\USER\.gradle\caches\transforms-2\files-2.1\8f8ab13dc8f4e84e14a8bb3d9ac92bc4\core-1.0.1\AndroidManifest.xml:22:5-89
MERGED from [androidx.core:core:1.0.1] C:\Users\USER\.gradle\caches\transforms-2\files-2.1\8f8ab13dc8f4e84e14a8bb3d9ac92bc4\core-1.0.1\AndroidManifest.xml:22:5-89
MERGED from [androidx.versionedparcelable:versionedparcelable:1.0.0] C:\Users\USER\.gradle\caches\transforms-2\files-2.1\c70a8bef3ed62675d42960780f476d6e\versionedparcelable-1.0.0\AndroidManifest.xml:22:5-23:19
MERGED from [androidx.versionedparcelable:versionedparcelable:1.0.0] C:\Users\USER\.gradle\caches\transforms-2\files-2.1\c70a8bef3ed62675d42960780f476d6e\versionedparcelable-1.0.0\AndroidManifest.xml:22:5-23:19
	android:appComponentFactory
		ADDED from [androidx.core:core:1.0.1] C:\Users\USER\.gradle\caches\transforms-2\files-2.1\8f8ab13dc8f4e84e14a8bb3d9ac92bc4\core-1.0.1\AndroidManifest.xml:22:18-86
	android:supportsRtl
		ADDED from C:\Users\USER\android-fundamentals-apps-v2-master\Register\app\src\main\AndroidManifest.xml:10:9-35
	android:label
		ADDED from C:\Users\USER\android-fundamentals-apps-v2-master\Register\app\src\main\AndroidManifest.xml:8:9-41
	android:roundIcon
		ADDED from C:\Users\USER\android-fundamentals-apps-v2-master\Register\app\src\main\AndroidManifest.xml:9:9-54
	android:icon
		ADDED from C:\Users\USER\android-fundamentals-apps-v2-master\Register\app\src\main\AndroidManifest.xml:7:9-43
	android:allowBackup
		ADDED from C:\Users\USER\android-fundamentals-apps-v2-master\Register\app\src\main\AndroidManifest.xml:6:9-35
	android:theme
		ADDED from C:\Users\USER\android-fundamentals-apps-v2-master\Register\app\src\main\AndroidManifest.xml:11:9-40
activity#com.example.register.MainActivity
ADDED from C:\Users\USER\android-fundamentals-apps-v2-master\Register\app\src\main\AndroidManifest.xml:12:9-18:20
	android:name
		ADDED from C:\Users\USER\android-fundamentals-apps-v2-master\Register\app\src\main\AndroidManifest.xml:12:19-47
intent-filter#action:name:android.intent.action.MAIN+category:name:android.intent.category.LAUNCHER
ADDED from C:\Users\USER\android-fundamentals-apps-v2-master\Register\app\src\main\AndroidManifest.xml:13:13-17:29
action#android.intent.action.MAIN
ADDED from C:\Users\USER\android-fundamentals-apps-v2-master\Register\app\src\main\AndroidManifest.xml:14:17-69
	android:name
		ADDED from C:\Users\USER\android-fundamentals-apps-v2-master\Register\app\src\main\AndroidManifest.xml:14:25-66
category#android.intent.category.LAUNCHER
ADDED from C:\Users\USER\android-fundamentals-apps-v2-master\Register\app\src\main\AndroidManifest.xml:16:17-77
	android:name
		ADDED from C:\Users\USER\android-fundamentals-apps-v2-master\Register\app\src\main\AndroidManifest.xml:16:27-74
uses-sdk
INJECTED from C:\Users\USER\android-fundamentals-apps-v2-master\Register\app\src\main\AndroidManifest.xml reason: use-sdk injection requested
INJECTED from C:\Users\USER\android-fundamentals-apps-v2-master\Register\app\src\main\AndroidManifest.xml
INJECTED from C:\Users\USER\android-fundamentals-apps-v2-master\Register\app\src\main\AndroidManifest.xml
MERGED from [androidx.appcompat:appcompat:1.0.2] C:\Users\USER\.gradle\caches\transforms-2\files-2.1\697f71c0c12135256cbfe98df498a7e4\appcompat-1.0.2\AndroidManifest.xml:20:5-44
MERGED from [androidx.appcompat:appcompat:1.0.2] C:\Users\USER\.gradle\caches\transforms-2\files-2.1\697f71c0c12135256cbfe98df498a7e4\appcompat-1.0.2\AndroidManifest.xml:20:5-44
MERGED from [androidx.constraintlayout:constraintlayout:1.1.3] C:\Users\USER\.gradle\caches\transforms-2\files-2.1\3ec6fa8458ddbe732478393a9f9e6c77\constraintlayout-1.1.3\AndroidManifest.xml:5:5-7:41
MERGED from [androidx.constraintlayout:constraintlayout:1.1.3] C:\Users\USER\.gradle\caches\transforms-2\files-2.1\3ec6fa8458ddbe732478393a9f9e6c77\constraintlayout-1.1.3\AndroidManifest.xml:5:5-7:41
MERGED from [androidx.fragment:fragment:1.0.0] C:\Users\USER\.gradle\caches\transforms-2\files-2.1\4f680f5cab482b7966fa9c805ac0cb70\fragment-1.0.0\AndroidManifest.xml:20:5-44
MERGED from [androidx.fragment:fragment:1.0.0] C:\Users\USER\.gradle\caches\transforms-2\files-2.1\4f680f5cab482b7966fa9c805ac0cb70\fragment-1.0.0\AndroidManifest.xml:20:5-44
MERGED from [androidx.vectordrawable:vectordrawable-animated:1.0.0] C:\Users\USER\.gradle\caches\transforms-2\files-2.1\61965e5c06bda9445c13760f9d9ef779\vectordrawable-animated-1.0.0\AndroidManifest.xml:20:5-44
MERGED from [androidx.vectordrawable:vectordrawable-animated:1.0.0] C:\Users\USER\.gradle\caches\transforms-2\files-2.1\61965e5c06bda9445c13760f9d9ef779\vectordrawable-animated-1.0.0\AndroidManifest.xml:20:5-44
MERGED from [androidx.legacy:legacy-support-core-ui:1.0.0] C:\Users\USER\.gradle\caches\transforms-2\files-2.1\ec593f8d91037f6ef1bbcd6a177afa1c\legacy-support-core-ui-1.0.0\AndroidManifest.xml:20:5-44
MERGED from [androidx.legacy:legacy-support-core-ui:1.0.0] C:\Users\USER\.gradle\caches\transforms-2\files-2.1\ec593f8d91037f6ef1bbcd6a177afa1c\legacy-support-core-ui-1.0.0\AndroidManifest.xml:20:5-44
MERGED from [androidx.legacy:legacy-support-core-utils:1.0.0] C:\Users\USER\.gradle\caches\transforms-2\files-2.1\4f8b5527496d67480951cc322460db7f\legacy-support-core-utils-1.0.0\AndroidManifest.xml:20:5-44
MERGED from [androidx.legacy:legacy-support-core-utils:1.0.0] C:\Users\USER\.gradle\caches\transforms-2\files-2.1\4f8b5527496d67480951cc322460db7f\legacy-support-core-utils-1.0.0\AndroidManifest.xml:20:5-44
MERGED from [androidx.vectordrawable:vectordrawable:1.0.1] C:\Users\USER\.gradle\caches\transforms-2\files-2.1\62ec569ca307aebf19eb528ff2a14917\vectordrawable-1.0.1\AndroidManifest.xml:20:5-44
MERGED from [androidx.vectordrawable:vectordrawable:1.0.1] C:\Users\USER\.gradle\caches\transforms-2\files-2.1\62ec569ca307aebf19eb528ff2a14917\vectordrawable-1.0.1\AndroidManifest.xml:20:5-44
MERGED from [androidx.loader:loader:1.0.0] C:\Users\USER\.gradle\caches\transforms-2\files-2.1\5276819c062a92c029464122749254f1\loader-1.0.0\AndroidManifest.xml:20:5-44
MERGED from [androidx.loader:loader:1.0.0] C:\Users\USER\.gradle\caches\transforms-2\files-2.1\5276819c062a92c029464122749254f1\loader-1.0.0\AndroidManifest.xml:20:5-44
MERGED from [androidx.viewpager:viewpager:1.0.0] C:\Users\USER\.gradle\caches\transforms-2\files-2.1\4932f7e67b26f042b51fa62f1aa4816d\viewpager-1.0.0\AndroidManifest.xml:20:5-44
MERGED from [androidx.viewpager:viewpager:1.0.0] C:\Users\USER\.gradle\caches\transforms-2\files-2.1\4932f7e67b26f042b51fa62f1aa4816d\viewpager-1.0.0\AndroidManifest.xml:20:5-44
MERGED from [androidx.coordinatorlayout:coordinatorlayout:1.0.0] C:\Users\USER\.gradle\caches\transforms-2\files-2.1\8849109129fcb2f39779166fb64480b1\coordinatorlayout-1.0.0\AndroidManifest.xml:20:5-44
MERGED from [androidx.coordinatorlayout:coordinatorlayout:1.0.0] C:\Users\USER\.gradle\caches\transforms-2\files-2.1\8849109129fcb2f39779166fb64480b1\coordinatorlayout-1.0.0\AndroidManifest.xml:20:5-44
MERGED from [androidx.drawerlayout:drawerlayout:1.0.0] C:\Users\USER\.gradle\caches\transforms-2\files-2.1\00bc847ce5b9e3ce7b40d465bffbf9e9\drawerlayout-1.0.0\AndroidManifest.xml:20:5-44
MERGED from [androidx.drawerlayout:drawerlayout:1.0.0] C:\Users\USER\.gradle\caches\transforms-2\files-2.1\00bc847ce5b9e3ce7b40d465bffbf9e9\drawerlayout-1.0.0\AndroidManifest.xml:20:5-44
MERGED from [androidx.slidingpanelayout:slidingpanelayout:1.0.0] C:\Users\USER\.gradle\caches\transforms-2\files-2.1\5ad830c9e1047f79e3f0f7e9e42ab8ab\slidingpanelayout-1.0.0\AndroidManifest.xml:20:5-44
MERGED from [androidx.slidingpanelayout:slidingpanelayout:1.0.0] C:\Users\USER\.gradle\caches\transforms-2\files-2.1\5ad830c9e1047f79e3f0f7e9e42ab8ab\slidingpanelayout-1.0.0\AndroidManifest.xml:20:5-44
MERGED from [androidx.customview:customview:1.0.0] C:\Users\USER\.gradle\caches\transforms-2\files-2.1\a3c457ded457b98b207b4f227d629399\customview-1.0.0\AndroidManifest.xml:20:5-44
MERGED from [androidx.customview:customview:1.0.0] C:\Users\USER\.gradle\caches\transforms-2\files-2.1\a3c457ded457b98b207b4f227d629399\customview-1.0.0\AndroidManifest.xml:20:5-44
MERGED from [androidx.swiperefreshlayout:swiperefreshlayout:1.0.0] C:\Users\USER\.gradle\caches\transforms-2\files-2.1\3d4a3c67e39fa8d6d0c0f126c28b81d8\swiperefreshlayout-1.0.0\AndroidManifest.xml:20:5-44
MERGED from [androidx.swiperefreshlayout:swiperefreshlayout:1.0.0] C:\Users\USER\.gradle\caches\transforms-2\files-2.1\3d4a3c67e39fa8d6d0c0f126c28b81d8\swiperefreshlayout-1.0.0\AndroidManifest.xml:20:5-44
MERGED from [androidx.asynclayoutinflater:asynclayoutinflater:1.0.0] C:\Users\USER\.gradle\caches\transforms-2\files-2.1\82b148795609bbbaf8e825fc2ff2a6bf\asynclayoutinflater-1.0.0\AndroidManifest.xml:20:5-44
MERGED from [androidx.asynclayoutinflater:asynclayoutinflater:1.0.0] C:\Users\USER\.gradle\caches\transforms-2\files-2.1\82b148795609bbbaf8e825fc2ff2a6bf\asynclayoutinflater-1.0.0\AndroidManifest.xml:20:5-44
MERGED from [androidx.core:core:1.0.1] C:\Users\USER\.gradle\caches\transforms-2\files-2.1\8f8ab13dc8f4e84e14a8bb3d9ac92bc4\core-1.0.1\AndroidManifest.xml:20:5-44
MERGED from [androidx.core:core:1.0.1] C:\Users\USER\.gradle\caches\transforms-2\files-2.1\8f8ab13dc8f4e84e14a8bb3d9ac92bc4\core-1.0.1\AndroidManifest.xml:20:5-44
MERGED from [androidx.versionedparcelable:versionedparcelable:1.0.0] C:\Users\USER\.gradle\caches\transforms-2\files-2.1\c70a8bef3ed62675d42960780f476d6e\versionedparcelable-1.0.0\AndroidManifest.xml:20:5-44
MERGED from [androidx.versionedparcelable:versionedparcelable:1.0.0] C:\Users\USER\.gradle\caches\transforms-2\files-2.1\c70a8bef3ed62675d42960780f476d6e\versionedparcelable-1.0.0\AndroidManifest.xml:20:5-44
MERGED from [androidx.cursoradapter:cursoradapter:1.0.0] C:\Users\USER\.gradle\caches\transforms-2\files-2.1\fb2fbe77879a57ea0c5dfd6fe59ba874\cursoradapter-1.0.0\AndroidManifest.xml:20:5-44
MERGED from [androidx.cursoradapter:cursoradapter:1.0.0] C:\Users\USER\.gradle\caches\transforms-2\files-2.1\fb2fbe77879a57ea0c5dfd6fe59ba874\cursoradapter-1.0.0\AndroidManifest.xml:20:5-44
MERGED from [androidx.lifecycle:lifecycle-runtime:2.0.0] C:\Users\USER\.gradle\caches\transforms-2\files-2.1\4c7e5b6d46acfb24c04b3a473c53b419\lifecycle-runtime-2.0.0\AndroidManifest.xml:20:5-44
MERGED from [androidx.lifecycle:lifecycle-runtime:2.0.0] C:\Users\USER\.gradle\caches\transforms-2\files-2.1\4c7e5b6d46acfb24c04b3a473c53b419\lifecycle-runtime-2.0.0\AndroidManifest.xml:20:5-44
MERGED from [androidx.documentfile:documentfile:1.0.0] C:\Users\USER\.gradle\caches\transforms-2\files-2.1\f582580d3eb247a74d915a27810a4674\documentfile-1.0.0\AndroidManifest.xml:20:5-44
MERGED from [androidx.documentfile:documentfile:1.0.0] C:\Users\USER\.gradle\caches\transforms-2\files-2.1\f582580d3eb247a74d915a27810a4674\documentfile-1.0.0\AndroidManifest.xml:20:5-44
MERGED from [androidx.localbroadcastmanager:localbroadcastmanager:1.0.0] C:\Users\USER\.gradle\caches\transforms-2\files-2.1\c75155371656c04dff3a027cdeb13e8a\localbroadcastmanager-1.0.0\AndroidManifest.xml:20:5-44
MERGED from [androidx.localbroadcastmanager:localbroadcastmanager:1.0.0] C:\Users\USER\.gradle\caches\transforms-2\files-2.1\c75155371656c04dff3a027cdeb13e8a\localbroadcastmanager-1.0.0\AndroidManifest.xml:20:5-44
MERGED from [androidx.print:print:1.0.0] C:\Users\USER\.gradle\caches\transforms-2\files-2.1\53b4a4cf87c0ff501a8c414cec884555\print-1.0.0\AndroidManifest.xml:20:5-44
MERGED from [androidx.print:print:1.0.0] C:\Users\USER\.gradle\caches\transforms-2\files-2.1\53b4a4cf87c0ff501a8c414cec884555\print-1.0.0\AndroidManifest.xml:20:5-44
MERGED from [androidx.lifecycle:lifecycle-viewmodel:2.0.0] C:\Users\USER\.gradle\caches\transforms-2\files-2.1\94d1bdd9d3f5e77b2c2deb76d0ecef77\lifecycle-viewmodel-2.0.0\AndroidManifest.xml:20:5-44
MERGED from [androidx.lifecycle:lifecycle-viewmodel:2.0.0] C:\Users\USER\.gradle\caches\transforms-2\files-2.1\94d1bdd9d3f5e77b2c2deb76d0ecef77\lifecycle-viewmodel-2.0.0\AndroidManifest.xml:20:5-44
MERGED from [androidx.lifecycle:lifecycle-livedata:2.0.0] C:\Users\USER\.gradle\caches\transforms-2\files-2.1\63647da4654da12a6f2785cfbbad8123\lifecycle-livedata-2.0.0\AndroidManifest.xml:20:5-44
MERGED from [androidx.lifecycle:lifecycle-livedata:2.0.0] C:\Users\USER\.gradle\caches\transforms-2\files-2.1\63647da4654da12a6f2785cfbbad8123\lifecycle-livedata-2.0.0\AndroidManifest.xml:20:5-44
MERGED from [androidx.lifecycle:lifecycle-livedata-core:2.0.0] C:\Users\USER\.gradle\caches\transforms-2\files-2.1\733fc1d306cee2c05d3e1fb0b7527020\lifecycle-livedata-core-2.0.0\AndroidManifest.xml:20:5-44
MERGED from [androidx.lifecycle:lifecycle-livedata-core:2.0.0] C:\Users\USER\.gradle\caches\transforms-2\files-2.1\733fc1d306cee2c05d3e1fb0b7527020\lifecycle-livedata-core-2.0.0\AndroidManifest.xml:20:5-44
MERGED from [androidx.arch.core:core-runtime:2.0.0] C:\Users\USER\.gradle\caches\transforms-2\files-2.1\fdd65d8b6066fd289a68b42931dc03a2\core-runtime-2.0.0\AndroidManifest.xml:20:5-44
MERGED from [androidx.arch.core:core-runtime:2.0.0] C:\Users\USER\.gradle\caches\transforms-2\files-2.1\fdd65d8b6066fd289a68b42931dc03a2\core-runtime-2.0.0\AndroidManifest.xml:20:5-44
MERGED from [androidx.interpolator:interpolator:1.0.0] C:\Users\USER\.gradle\caches\transforms-2\files-2.1\3a992d8307f21a8f15eb649383ba6a6a\interpolator-1.0.0\AndroidManifest.xml:20:5-44
MERGED from [androidx.interpolator:interpolator:1.0.0] C:\Users\USER\.gradle\caches\transforms-2\files-2.1\3a992d8307f21a8f15eb649383ba6a6a\interpolator-1.0.0\AndroidManifest.xml:20:5-44
INJECTED from C:\Users\USER\android-fundamentals-apps-v2-master\Register\app\src\main\AndroidManifest.xml
INJECTED from C:\Users\USER\android-fundamentals-apps-v2-master\Register\app\src\main\AndroidManifest.xml
	android:targetSdkVersion
		INJECTED from C:\Users\USER\android-fundamentals-apps-v2-master\Register\app\src\main\AndroidManifest.xml
		ADDED from C:\Users\USER\android-fundamentals-apps-v2-master\Register\app\src\main\AndroidManifest.xml
		INJECTED from C:\Users\USER\android-fundamentals-apps-v2-master\Register\app\src\main\AndroidManifest.xml
	android:minSdkVersion
		INJECTED from C:\Users\USER\android-fundamentals-apps-v2-master\Register\app\src\main\AndroidManifest.xml
		ADDED from C:\Users\USER\android-fundamentals-apps-v2-master\Register\app\src\main\AndroidManifest.xml
		INJECTED from C:\Users\USER\android-fundamentals-apps-v2-master\Register\app\src\main\AndroidManifest.xml
